pset-02-r-data-analysis
…
The .qmd file must be able to render properly on the GSI’s computer. They will already have the necessary packages installed, so there is no need to include code for installing packages. Just focus on writing the code that uses these packages.

Exercises

(1 point) Filter the NHANES data to only include survey year 2011-2012. Save the resulting table in dat. This table should have 5,000 rows and 76 columns and can be accessed via the variable NHANES.

## code here
dat <- NHANES |> filter(SurveyYr == "2011_12")
dat

# A tibble: 5,000 × 76
      ID SurveyYr Gender   Age AgeDecade AgeMonths Race1   Race3   Education   
   <int> <fct>    <fct>  <int> <fct>         <int> <fct>   <fct>   <fct>       
 1 62163 2011_12  male      14 " 10-19"         NA Other   Asian   <NA>        
 2 62172 2011_12  female    43 " 40-49"         NA Black   Black   High School 
 3 62174 2011_12  male      80  <NA>            NA White   White   College Grad
 4 62174 2011_12  male      80  <NA>            NA White   White   College Grad
 5 62175 2011_12  male       5 " 0-9"           NA White   White   <NA>        
 6 62176 2011_12  female    34 " 30-39"         NA White   White   College Grad
 7 62178 2011_12  male      80  <NA>            NA White   White   High School 
 8 62180 2011_12  male      35 " 30-39"         NA White   White   College Grad
 9 62186 2011_12  female    17 " 10-19"         NA Black   Black   <NA>        
10 62190 2011_12  female    15 " 10-19"         NA Mexican Mexican <NA>        
# ℹ 4,990 more rows
# ℹ 67 more variables: MaritalStatus <fct>, HHIncome <fct>, HHIncomeMid <int>,
#   Poverty <dbl>, HomeRooms <int>, HomeOwn <fct>, Work <fct>, Weight <dbl>,
#   Length <dbl>, HeadCirc <dbl>, Height <dbl>, BMI <dbl>,
#   BMICatUnder20yrs <fct>, BMI_WHO <fct>, Pulse <int>, BPSysAve <int>,
#   BPDiaAve <int>, BPSys1 <int>, BPDia1 <int>, BPSys2 <int>, BPDia2 <int>,
#   BPSys3 <int>, BPDia3 <int>, Testosterone <dbl>, DirectChol <dbl>, …
…
